Order_id: 1
Customer name: JohnSmith
   ord_item_id = 2
   good_id = 2
   vendor = vendor_2
   name = good_2
   quantity = 150

   ord_item_id = 3
   good_id = 1
   vendor = vendor_1
   name = good_1
   quantity = 11



